\relax 
\catcode`"\active
\select@language{italian}
\@writefile{toc}{\select@language{italian}}
\@writefile{lof}{\select@language{italian}}
\@writefile{lot}{\select@language{italian}}
\@writefile{toc}{\contentsline {chapter}{Introduzione}{1}}
\@writefile{toc}{\contentsline {chapter}{\numberline {1}Sviluppo del progetto in R}{2}}
\@writefile{lof}{\addvspace {10\p@ }}
\@writefile{lot}{\addvspace {10\p@ }}
\@writefile{toc}{\contentsline {section}{\numberline {1.1}Caricamento dati}{2}}
\@writefile{lot}{\contentsline {table}{\numberline {1.1}{\ignorespaces Dati in input}}{2}}
\@writefile{toc}{\contentsline {section}{\numberline {1.2}Analisi dati}{3}}
\@writefile{toc}{\contentsline {subsection}{\numberline {1.2.1}Funzione str()}{3}}
\@writefile{toc}{\contentsline {subsection}{\numberline {1.2.2}Funzione names()}{3}}
\@writefile{toc}{\contentsline {subsection}{\numberline {1.2.3}Funzione summary()}{3}}
\@writefile{toc}{\contentsline {section}{\numberline {1.3}Analisi valori Euro}{3}}
\@writefile{lot}{\contentsline {table}{\numberline {1.2}{\ignorespaces Tabella che rappresenta i risultati dell'analisi delle colonna Euro}}{4}}
\@writefile{toc}{\contentsline {section}{\numberline {1.4}Specificazione dei valori}{4}}
\@writefile{toc}{\contentsline {section}{\numberline {1.5}Rappresentazione grafica}{5}}
\@writefile{lof}{\contentsline {figure}{\numberline {1.1}{\ignorespaces Grafico lineare}}{6}}
\@writefile{lof}{\contentsline {figure}{\numberline {1.2}{\ignorespaces Grafico lineare riportando il valore massimo e minimo}}{7}}
\@writefile{lof}{\contentsline {figure}{\numberline {1.3}{\ignorespaces Grafico a barre}}{8}}
\@writefile{lof}{\contentsline {figure}{\numberline {1.4}{\ignorespaces Grafico a torta}}{9}}
\@writefile{toc}{\contentsline {chapter}{\numberline {2}R markdown}{10}}
\@writefile{lof}{\addvspace {10\p@ }}
\@writefile{lot}{\addvspace {10\p@ }}
\@writefile{toc}{\contentsline {chapter}{\numberline {3}R presentation}{11}}
\@writefile{lof}{\addvspace {10\p@ }}
\@writefile{lot}{\addvspace {10\p@ }}
\@writefile{toc}{\contentsline {chapter}{\numberline {4}Presentazione interattiva: Shiny}{12}}
\@writefile{lof}{\addvspace {10\p@ }}
\@writefile{lot}{\addvspace {10\p@ }}
\@writefile{toc}{\contentsline {chapter}{\numberline {A}Equivanete di R in un foglio elettronico}{13}}
\@writefile{lof}{\addvspace {10\p@ }}
\@writefile{lot}{\addvspace {10\p@ }}
\@writefile{lof}{\contentsline {figure}{\numberline {A.1}{\ignorespaces }}{13}}
\@writefile{toc}{\contentsline {section}{\numberline {A.1}Valore minimo}{14}}
\@writefile{toc}{\contentsline {section}{\numberline {A.2}Valore massimo}{14}}
\@writefile{toc}{\contentsline {section}{\numberline {A.3}Valore medio}{14}}
\@writefile{toc}{\contentsline {section}{\numberline {A.4}Varianza}{14}}
\@writefile{toc}{\contentsline {section}{\numberline {A.5}Numero elementi}{14}}
\@writefile{toc}{\contentsline {section}{\numberline {A.6}Somma totale}{15}}
\@writefile{toc}{\contentsline {section}{\numberline {A.7}Grafico lineare}{15}}
\@writefile{lof}{\contentsline {figure}{\numberline {A.2}{\ignorespaces Grafico lineare}}{15}}
\@writefile{lof}{\contentsline {figure}{\numberline {A.3}{\ignorespaces Grafico lineare riportando il valore massimo e minimo}}{16}}
\@writefile{toc}{\contentsline {section}{\numberline {A.8}Grafico a torta}{16}}
\@writefile{lof}{\contentsline {figure}{\numberline {A.4}{\ignorespaces Grafico a torta}}{16}}
\@writefile{toc}{\contentsline {chapter}{Bibliografia}{17}}
